EESchema Schematic File Version 2
LIBS:power
LIBS:device
LIBS:switches
LIBS:relays
LIBS:motors
LIBS:transistors
LIBS:conn
LIBS:linear
LIBS:regul
LIBS:74xx
LIBS:cmos4000
LIBS:adc-dac
LIBS:memory
LIBS:xilinx
LIBS:microcontrollers
LIBS:dsp
LIBS:microchip
LIBS:analog_switches
LIBS:motorola
LIBS:texas
LIBS:intel
LIBS:audio
LIBS:interface
LIBS:digital-audio
LIBS:philips
LIBS:display
LIBS:cypress
LIBS:siliconi
LIBS:opto
LIBS:atmel
LIBS:contrib
LIBS:valves
LIBS:w_vacuum
LIBS:w_transistor
LIBS:w_rtx
LIBS:w_relay
LIBS:w_opto
LIBS:w_microcontrollers
LIBS:w_memory
LIBS:w_logic
LIBS:w_device
LIBS:w_connectors
LIBS:w_analog
LIBS:assistant-cache
EELAYER 25 0
EELAYER END
$Descr A4 11693 8268
encoding utf-8
Sheet 1 1
Title ""
Date ""
Rev ""
Comp ""
Comment1 ""
Comment2 ""
Comment3 ""
Comment4 ""
$EndDescr
$Comp
L Arduino_Header J7
U 1 1 5A95DF7F
P 9200 2050
F 0 "J7" H 9200 3050 60  0000 C CNN
F 1 "Arduino_Header" H 9200 1050 60  0000 C CNN
F 2 "arduino:arduino_header" H 9200 2050 60  0000 C CNN
F 3 "" H 9200 2050 60  0000 C CNN
	1    9200 2050
	1    0    0    -1  
$EndComp
$Comp
L Conn_02x17_Odd_Even J2
U 1 1 5A95E145
P 3250 6700
F 0 "J2" H 3300 7600 50  0000 C CNN
F 1 "MATRIX" H 3300 5800 50  0000 C CNN
F 2 "w_pin_strip:pin_strip_17x2" H 3250 6700 50  0001 C CNN
F 3 "" H 3250 6700 50  0001 C CNN
	1    3250 6700
	0    -1   -1   0   
$EndComp
Text Label 5750 3950 2    60   ~ 0
ROW0
Text Label 5750 4050 2    60   ~ 0
ROW1
Text Label 5750 4150 2    60   ~ 0
ROW2
Text Label 5750 4250 2    60   ~ 0
ROW3
Text Label 5750 4350 2    60   ~ 0
ROW4
Text Label 1900 1200 0    60   ~ 0
COL0
Text Label 1900 1300 0    60   ~ 0
COL1
Text Label 1900 1500 0    60   ~ 0
COL3
Text Label 1900 1600 0    60   ~ 0
COL4
Text Label 1900 1700 0    60   ~ 0
COL5
Text Label 1900 1800 0    60   ~ 0
COL6
Text Label 1900 1900 0    60   ~ 0
COL7
Text Label 1900 2600 0    60   ~ 0
COL8
Text Label 1900 1400 0    60   ~ 0
COL2
Text Label 1900 2800 0    60   ~ 0
COL10
Text Label 1900 2900 0    60   ~ 0
COL11
Text Label 1900 3000 0    60   ~ 0
COL12
Text Label 1900 3100 0    60   ~ 0
COL13
Text Label 1900 3200 0    60   ~ 0
COL14
Text Label 1900 3300 0    60   ~ 0
COL15
Text Label 1900 2700 0    60   ~ 0
COL9
$Comp
L 74LS165 U1
U 1 1 5A9E3D8E
P 3150 1700
F 0 "U1" H 3300 1650 50  0000 C CNN
F 1 "74LS165" H 3300 1450 50  0000 C CNN
F 2 "w_smd_dil:so-16" H 3150 1700 50  0001 C CNN
F 3 "" H 3150 1700 50  0001 C CNN
	1    3150 1700
	1    0    0    -1  
$EndComp
$Comp
L 74LS165 U2
U 1 1 5A9E3E72
P 3150 3100
F 0 "U2" H 3300 3050 50  0000 C CNN
F 1 "74LS165" H 3300 2850 50  0000 C CNN
F 2 "w_smd_dil:so-16" H 3150 3100 50  0001 C CNN
F 3 "" H 3150 3100 50  0001 C CNN
	1    3150 3100
	1    0    0    -1  
$EndComp
$Comp
L 74HC595 U3
U 1 1 5A9E3ED7
P 3150 4400
F 0 "U3" H 3300 5000 50  0000 C CNN
F 1 "74HC595" H 3150 3800 50  0000 C CNN
F 2 "w_smd_dil:so-16" H 3150 4400 50  0001 C CNN
F 3 "" H 3150 4400 50  0001 C CNN
	1    3150 4400
	1    0    0    -1  
$EndComp
$Comp
L R R16
U 1 1 5A9E42D2
P 1800 2450
F 0 "R16" V 1880 2450 50  0000 C CNN
F 1 "R" V 1800 2450 50  0000 C CNN
F 2 "w_smd_resistors:r_0805" V 1730 2450 50  0001 C CNN
F 3 "" H 1800 2450 50  0001 C CNN
	1    1800 2450
	1    0    0    -1  
$EndComp
$Comp
L R R14
U 1 1 5A9E42FF
P 1650 2450
F 0 "R14" V 1730 2450 50  0000 C CNN
F 1 "R" V 1650 2450 50  0000 C CNN
F 2 "w_smd_resistors:r_0805" V 1580 2450 50  0001 C CNN
F 3 "" H 1650 2450 50  0001 C CNN
	1    1650 2450
	1    0    0    -1  
$EndComp
$Comp
L R R12
U 1 1 5A9E4331
P 1500 2450
F 0 "R12" V 1580 2450 50  0000 C CNN
F 1 "R" V 1500 2450 50  0000 C CNN
F 2 "w_smd_resistors:r_0805" V 1430 2450 50  0001 C CNN
F 3 "" H 1500 2450 50  0001 C CNN
	1    1500 2450
	1    0    0    -1  
$EndComp
$Comp
L R R10
U 1 1 5A9E4364
P 1350 2450
F 0 "R10" V 1430 2450 50  0000 C CNN
F 1 "R" V 1350 2450 50  0000 C CNN
F 2 "w_smd_resistors:r_0805" V 1280 2450 50  0001 C CNN
F 3 "" H 1350 2450 50  0001 C CNN
	1    1350 2450
	1    0    0    -1  
$EndComp
$Comp
L R R8
U 1 1 5A9E4584
P 1200 2450
F 0 "R8" V 1280 2450 50  0000 C CNN
F 1 "R" V 1200 2450 50  0000 C CNN
F 2 "w_smd_resistors:r_0805" V 1130 2450 50  0001 C CNN
F 3 "" H 1200 2450 50  0001 C CNN
	1    1200 2450
	1    0    0    -1  
$EndComp
$Comp
L R R6
U 1 1 5A9E458A
P 1050 2450
F 0 "R6" V 1130 2450 50  0000 C CNN
F 1 "R" V 1050 2450 50  0000 C CNN
F 2 "w_smd_resistors:r_0805" V 980 2450 50  0001 C CNN
F 3 "" H 1050 2450 50  0001 C CNN
	1    1050 2450
	1    0    0    -1  
$EndComp
$Comp
L R R4
U 1 1 5A9E4590
P 900 2450
F 0 "R4" V 980 2450 50  0000 C CNN
F 1 "R" V 900 2450 50  0000 C CNN
F 2 "w_smd_resistors:r_0805" V 830 2450 50  0001 C CNN
F 3 "" H 900 2450 50  0001 C CNN
	1    900  2450
	1    0    0    -1  
$EndComp
$Comp
L R R2
U 1 1 5A9E4596
P 750 2450
F 0 "R2" V 830 2450 50  0000 C CNN
F 1 "R" V 750 2450 50  0000 C CNN
F 2 "w_smd_resistors:r_0805" V 680 2450 50  0001 C CNN
F 3 "" H 750 2450 50  0001 C CNN
	1    750  2450
	1    0    0    -1  
$EndComp
$Comp
L R R15
U 1 1 5A9E4ADE
P 1800 1050
F 0 "R15" V 1880 1050 50  0000 C CNN
F 1 "R" V 1800 1050 50  0000 C CNN
F 2 "w_smd_resistors:r_0805" V 1730 1050 50  0001 C CNN
F 3 "" H 1800 1050 50  0001 C CNN
	1    1800 1050
	1    0    0    -1  
$EndComp
$Comp
L R R13
U 1 1 5A9E4AE4
P 1650 1050
F 0 "R13" V 1730 1050 50  0000 C CNN
F 1 "R" V 1650 1050 50  0000 C CNN
F 2 "w_smd_resistors:r_0805" V 1580 1050 50  0001 C CNN
F 3 "" H 1650 1050 50  0001 C CNN
	1    1650 1050
	1    0    0    -1  
$EndComp
$Comp
L R R11
U 1 1 5A9E4AEA
P 1500 1050
F 0 "R11" V 1580 1050 50  0000 C CNN
F 1 "R" V 1500 1050 50  0000 C CNN
F 2 "w_smd_resistors:r_0805" V 1430 1050 50  0001 C CNN
F 3 "" H 1500 1050 50  0001 C CNN
	1    1500 1050
	1    0    0    -1  
$EndComp
$Comp
L R R9
U 1 1 5A9E4AF0
P 1350 1050
F 0 "R9" V 1430 1050 50  0000 C CNN
F 1 "R" V 1350 1050 50  0000 C CNN
F 2 "w_smd_resistors:r_0805" V 1280 1050 50  0001 C CNN
F 3 "" H 1350 1050 50  0001 C CNN
	1    1350 1050
	1    0    0    -1  
$EndComp
$Comp
L R R7
U 1 1 5A9E4AF6
P 1200 1050
F 0 "R7" V 1280 1050 50  0000 C CNN
F 1 "R" V 1200 1050 50  0000 C CNN
F 2 "w_smd_resistors:r_0805" V 1130 1050 50  0001 C CNN
F 3 "" H 1200 1050 50  0001 C CNN
	1    1200 1050
	1    0    0    -1  
$EndComp
$Comp
L R R5
U 1 1 5A9E4AFC
P 1050 1050
F 0 "R5" V 1130 1050 50  0000 C CNN
F 1 "R" V 1050 1050 50  0000 C CNN
F 2 "w_smd_resistors:r_0805" V 980 1050 50  0001 C CNN
F 3 "" H 1050 1050 50  0001 C CNN
	1    1050 1050
	1    0    0    -1  
$EndComp
$Comp
L R R3
U 1 1 5A9E4B02
P 900 1050
F 0 "R3" V 980 1050 50  0000 C CNN
F 1 "R" V 900 1050 50  0000 C CNN
F 2 "w_smd_resistors:r_0805" V 830 1050 50  0001 C CNN
F 3 "" H 900 1050 50  0001 C CNN
	1    900  1050
	1    0    0    -1  
$EndComp
$Comp
L R R1
U 1 1 5A9E4B08
P 750 1050
F 0 "R1" V 830 1050 50  0000 C CNN
F 1 "R" V 750 1050 50  0000 C CNN
F 2 "w_smd_resistors:r_0805" V 680 1050 50  0001 C CNN
F 3 "" H 750 1050 50  0001 C CNN
	1    750  1050
	1    0    0    -1  
$EndComp
$Comp
L GND #PWR01
U 1 1 5A9E65E7
P 2350 5150
F 0 "#PWR01" H 2350 4900 50  0001 C CNN
F 1 "GND" H 2350 5000 50  0000 C CNN
F 2 "" H 2350 5150 50  0001 C CNN
F 3 "" H 2350 5150 50  0001 C CNN
	1    2350 5150
	1    0    0    -1  
$EndComp
NoConn ~ 3850 1300
NoConn ~ 3850 2700
Text Label 1050 2200 0    60   ~ 0
PUPDN
Text Label 1050 800  0    60   ~ 0
PUPDN
Text Label 1900 2050 0    60   ~ 0
LATCH
Text Label 1900 2200 0    60   ~ 0
CLK
Text Label 1900 3450 0    60   ~ 0
LATCH
Text Label 1900 3600 0    60   ~ 0
CLK
Text Label 4150 2600 2    60   ~ 0
MISO
Text Label 1900 4150 0    60   ~ 0
CLK
Text Label 1900 3950 0    60   ~ 0
MOSI
Text Label 1900 4450 0    60   ~ 0
LATCH
$Comp
L Conn_01x03 J1
U 1 1 5A9E80D0
P 1450 4000
F 0 "J1" H 1450 4200 50  0000 C CNN
F 1 "PUP/DN" H 1450 3800 50  0000 C CNN
F 2 "w_pin_strip:pin_strip_3" H 1450 4000 50  0001 C CNN
F 3 "" H 1450 4000 50  0001 C CNN
	1    1450 4000
	1    0    0    -1  
$EndComp
Text Label 900  4000 0    60   ~ 0
PUPDN
$Comp
L GND #PWR02
U 1 1 5A9E8340
P 1050 4350
F 0 "#PWR02" H 1050 4100 50  0001 C CNN
F 1 "GND" H 1050 4200 50  0000 C CNN
F 2 "" H 1050 4350 50  0001 C CNN
F 3 "" H 1050 4350 50  0001 C CNN
	1    1050 4350
	1    0    0    -1  
$EndComp
$Comp
L Conn_01x02 J3
U 1 1 5A9E8CA9
P 7800 1750
F 0 "J3" H 7800 1850 50  0000 C CNN
F 1 "POWER_IN" H 7800 1550 50  0000 C CNN
F 2 "w_pin_strip:pin_strip_2" H 7800 1750 50  0001 C CNN
F 3 "" H 7800 1750 50  0001 C CNN
	1    7800 1750
	-1   0    0    1   
$EndComp
Text Label 8500 2050 0    60   ~ 0
VIN
$Comp
L GND #PWR03
U 1 1 5A9E90AE
P 8800 3150
F 0 "#PWR03" H 8800 2900 50  0001 C CNN
F 1 "GND" H 8800 3000 50  0000 C CNN
F 2 "" H 8800 3150 50  0001 C CNN
F 3 "" H 8800 3150 50  0001 C CNN
	1    8800 3150
	1    0    0    -1  
$EndComp
$Comp
L GND #PWR04
U 1 1 5A9E92D9
P 9600 3150
F 0 "#PWR04" H 9600 2900 50  0001 C CNN
F 1 "GND" H 9600 3000 50  0000 C CNN
F 2 "" H 9600 3150 50  0001 C CNN
F 3 "" H 9600 3150 50  0001 C CNN
	1    9600 3150
	1    0    0    -1  
$EndComp
NoConn ~ 8850 1450
Text Label 9900 2450 2    60   ~ 0
LATCH
Text Label 9900 1750 2    60   ~ 0
MOSI
Text Label 9900 1650 2    60   ~ 0
MISO
Text Label 9900 1550 2    60   ~ 0
CLK
Text Label 9900 1150 2    60   ~ 0
SCL
Text Label 9900 1250 2    60   ~ 0
SDA
Text Label 9900 2850 2    60   ~ 0
TX
Text Label 9900 2950 2    60   ~ 0
RX
Text Label 9900 1350 2    60   ~ 0
AREF
Text Label 9900 2650 2    60   ~ 0
LED1
Text Label 9550 4650 0    60   ~ 0
LED1
$Comp
L LED D2
U 1 1 5AA0AA7F
P 10050 4650
F 0 "D2" H 10050 4750 50  0000 C CNN
F 1 "LED1" H 10050 4550 50  0000 C CNN
F 2 "w_smd_leds:Led_0805" H 10050 4650 50  0001 C CNN
F 3 "" H 10050 4650 50  0001 C CNN
	1    10050 4650
	1    0    0    1   
$EndComp
$Comp
L R R18
U 1 1 5AA0AE02
P 10450 4650
F 0 "R18" V 10530 4650 50  0000 C CNN
F 1 "R" V 10450 4650 50  0000 C CNN
F 2 "w_smd_resistors:r_0805" V 10380 4650 50  0001 C CNN
F 3 "" H 10450 4650 50  0001 C CNN
	1    10450 4650
	0    1    -1   0   
$EndComp
$Comp
L Conn_01x03 J6
U 1 1 5AA0B244
P 8550 5250
F 0 "J6" H 8550 5450 50  0000 C CNN
F 1 "VDD_SEL" H 8550 5050 50  0000 C CNN
F 2 "w_pin_strip:pin_strip_3" H 8550 5250 50  0001 C CNN
F 3 "" H 8550 5250 50  0001 C CNN
	1    8550 5250
	-1   0    0    1   
$EndComp
Text Label 8650 1750 0    60   ~ 0
5V
Text Label 8650 1650 0    60   ~ 0
3V3
Text Label 8950 5350 2    60   ~ 0
5V
Text Label 8950 5150 2    60   ~ 0
3V3
Text Label 9900 2750 2    60   ~ 0
BUT1
$Comp
L SW_Push SW1
U 1 1 5AA0C07B
P 10350 5200
F 0 "SW1" H 10400 5300 50  0000 L CNN
F 1 "BUT1" H 10350 5140 50  0000 C CNN
F 2 "Button_Switch_THT:SW_PUSH_6mm" H 10350 5400 50  0001 C CNN
F 3 "" H 10350 5400 50  0001 C CNN
	1    10350 5200
	1    0    0    -1  
$EndComp
Text Label 9800 5200 0    60   ~ 0
BUT1
NoConn ~ 3850 4850
$Comp
L LED D1
U 1 1 5AA0F679
P 10050 4150
F 0 "D1" H 10050 4250 50  0000 C CNN
F 1 "PWR" H 10050 4050 50  0000 C CNN
F 2 "w_smd_leds:Led_0805" H 10050 4150 50  0001 C CNN
F 3 "" H 10050 4150 50  0001 C CNN
	1    10050 4150
	1    0    0    1   
$EndComp
$Comp
L R R17
U 1 1 5AA0F67F
P 10450 4150
F 0 "R17" V 10530 4150 50  0000 C CNN
F 1 "R" V 10450 4150 50  0000 C CNN
F 2 "w_smd_resistors:r_0805" V 10380 4150 50  0001 C CNN
F 3 "" H 10450 4150 50  0001 C CNN
	1    10450 4150
	0    1    -1   0   
$EndComp
$Comp
L GND #PWR05
U 1 1 5AA0F7FB
P 9600 4300
F 0 "#PWR05" H 9600 4050 50  0001 C CNN
F 1 "GND" H 9600 4150 50  0000 C CNN
F 2 "" H 9600 4300 50  0001 C CNN
F 3 "" H 9600 4300 50  0001 C CNN
	1    9600 4300
	1    0    0    -1  
$EndComp
Text Label 2450 7300 1    60   ~ 0
COL0
Text Label 2550 7300 1    60   ~ 0
COL1
Text Label 2750 7300 1    60   ~ 0
COL3
Text Label 2850 7300 1    60   ~ 0
COL4
Text Label 2950 7300 1    60   ~ 0
COL5
Text Label 3050 7300 1    60   ~ 0
COL6
Text Label 3150 7300 1    60   ~ 0
COL7
Text Label 2650 7300 1    60   ~ 0
COL2
Text Label 3250 7300 1    60   ~ 0
COL8
Text Label 3450 7300 1    60   ~ 0
COL10
Text Label 3550 7300 1    60   ~ 0
COL11
Text Label 3650 7300 1    60   ~ 0
COL12
Text Label 3750 7300 1    60   ~ 0
COL13
Text Label 3850 7300 1    60   ~ 0
COL14
Text Label 3950 7300 1    60   ~ 0
COL15
Text Label 3350 7300 1    60   ~ 0
COL9
NoConn ~ 3050 6400
NoConn ~ 2950 6400
NoConn ~ 2850 6400
NoConn ~ 2750 6400
NoConn ~ 2650 6400
NoConn ~ 2450 6400
NoConn ~ 2550 6400
Text Label 3150 6000 3    60   ~ 0
ROW0
Text Label 3250 6000 3    60   ~ 0
ROW1
Text Label 3350 6000 3    60   ~ 0
ROW2
Text Label 3450 6000 3    60   ~ 0
ROW3
Text Label 3550 6000 3    60   ~ 0
ROW4
Text Label 5750 4450 2    60   ~ 0
ROW5
Text Label 5750 4550 2    60   ~ 0
ROW6
Text Label 5750 4650 2    60   ~ 0
ROW7
Text Label 3650 6000 3    60   ~ 0
ROW5
Text Label 3750 6000 3    60   ~ 0
ROW6
Text Label 3850 6000 3    60   ~ 0
ROW7
NoConn ~ 3950 6400
$Comp
L C C1
U 1 1 5AA1C227
P 1150 6750
F 0 "C1" H 1175 6850 50  0000 L CNN
F 1 "C" H 1175 6650 50  0000 L CNN
F 2 "w_smd_cap:c_0805" H 1188 6600 50  0001 C CNN
F 3 "" H 1150 6750 50  0001 C CNN
	1    1150 6750
	1    0    0    -1  
$EndComp
$Comp
L C C2
U 1 1 5AA1C37C
P 1400 6750
F 0 "C2" H 1425 6850 50  0000 L CNN
F 1 "C" H 1425 6650 50  0000 L CNN
F 2 "w_smd_cap:c_0805" H 1438 6600 50  0001 C CNN
F 3 "" H 1400 6750 50  0001 C CNN
	1    1400 6750
	1    0    0    -1  
$EndComp
$Comp
L C C3
U 1 1 5AA1C4B9
P 1650 6750
F 0 "C3" H 1675 6850 50  0000 L CNN
F 1 "C" H 1675 6650 50  0000 L CNN
F 2 "w_smd_cap:c_0805" H 1688 6600 50  0001 C CNN
F 3 "" H 1650 6750 50  0001 C CNN
	1    1650 6750
	1    0    0    -1  
$EndComp
$Comp
L C C4
U 1 1 5AA1C4BF
P 1900 6750
F 0 "C4" H 1925 6850 50  0000 L CNN
F 1 "C" H 1925 6650 50  0000 L CNN
F 2 "w_smd_cap:c_0805" H 1938 6600 50  0001 C CNN
F 3 "" H 1900 6750 50  0001 C CNN
	1    1900 6750
	1    0    0    -1  
$EndComp
$Comp
L GND #PWR06
U 1 1 5AA1CE05
P 1900 7100
F 0 "#PWR06" H 1900 6850 50  0001 C CNN
F 1 "GND" H 1900 6950 50  0000 C CNN
F 2 "" H 1900 7100 50  0001 C CNN
F 3 "" H 1900 7100 50  0001 C CNN
	1    1900 7100
	1    0    0    -1  
$EndComp
$Comp
L GND #PWR07
U 1 1 5AA2F7EF
P 10700 5400
F 0 "#PWR07" H 10700 5150 50  0001 C CNN
F 1 "GND" H 10700 5250 50  0000 C CNN
F 2 "" H 10700 5400 50  0001 C CNN
F 3 "" H 10700 5400 50  0001 C CNN
	1    10700 5400
	1    0    0    -1  
$EndComp
$Comp
L VCC #PWR08
U 1 1 5AA316D3
P 2250 800
F 0 "#PWR08" H 2250 650 50  0001 C CNN
F 1 "VCC" H 2250 950 50  0000 C CNN
F 2 "" H 2250 800 50  0001 C CNN
F 3 "" H 2250 800 50  0001 C CNN
	1    2250 800 
	1    0    0    -1  
$EndComp
$Comp
L VCC #PWR09
U 1 1 5AA318C8
P 1050 3750
F 0 "#PWR09" H 1050 3600 50  0001 C CNN
F 1 "VCC" H 1050 3900 50  0000 C CNN
F 2 "" H 1050 3750 50  0001 C CNN
F 3 "" H 1050 3750 50  0001 C CNN
	1    1050 3750
	1    0    0    -1  
$EndComp
$Comp
L VCC #PWR010
U 1 1 5AA31ABD
P 1150 6400
F 0 "#PWR010" H 1150 6250 50  0001 C CNN
F 1 "VCC" H 1150 6550 50  0000 C CNN
F 2 "" H 1150 6400 50  0001 C CNN
F 3 "" H 1150 6400 50  0001 C CNN
	1    1150 6400
	1    0    0    -1  
$EndComp
$Comp
L VCC #PWR011
U 1 1 5AA320C5
P 9000 5000
F 0 "#PWR011" H 9000 4850 50  0001 C CNN
F 1 "VCC" H 9000 5150 50  0000 C CNN
F 2 "" H 9000 5000 50  0001 C CNN
F 3 "" H 9000 5000 50  0001 C CNN
	1    9000 5000
	1    0    0    -1  
$EndComp
$Comp
L VCC #PWR012
U 1 1 5AA32453
P 10700 3950
F 0 "#PWR012" H 10700 3800 50  0001 C CNN
F 1 "VCC" H 10700 4100 50  0000 C CNN
F 2 "" H 10700 3950 50  0001 C CNN
F 3 "" H 10700 3950 50  0001 C CNN
	1    10700 3950
	1    0    0    -1  
$EndComp
Wire Wire Line
	5500 3950 5750 3950
Wire Wire Line
	5500 4350 5750 4350
Wire Wire Line
	5750 4250 5500 4250
Wire Wire Line
	5500 4150 5750 4150
Wire Wire Line
	5750 4050 5500 4050
Wire Wire Line
	1800 2600 2450 2600
Wire Wire Line
	750  3300 2450 3300
Wire Wire Line
	900  3200 2450 3200
Wire Wire Line
	1050 3100 2450 3100
Wire Wire Line
	1200 3000 2450 3000
Wire Wire Line
	1350 2900 2450 2900
Wire Wire Line
	1500 2800 2450 2800
Wire Wire Line
	1650 2700 2450 2700
Wire Wire Line
	750  3300 750  2600
Wire Wire Line
	900  2600 900  3200
Wire Wire Line
	1050 3100 1050 2600
Wire Wire Line
	1200 2600 1200 3000
Wire Wire Line
	1350 2900 1350 2600
Wire Wire Line
	1500 2600 1500 2800
Wire Wire Line
	1650 2700 1650 2600
Wire Wire Line
	750  2200 1800 2200
Wire Wire Line
	1800 2200 1800 2300
Wire Wire Line
	1650 2300 1650 2200
Connection ~ 1650 2200
Wire Wire Line
	1500 2300 1500 2200
Connection ~ 1500 2200
Wire Wire Line
	1350 2300 1350 2200
Connection ~ 1350 2200
Wire Wire Line
	1200 2300 1200 2200
Connection ~ 1200 2200
Wire Wire Line
	1050 2300 1050 2200
Connection ~ 1050 2200
Wire Wire Line
	900  2300 900  2200
Connection ~ 900  2200
Wire Wire Line
	750  1900 2450 1900
Wire Wire Line
	900  1800 2450 1800
Wire Wire Line
	1050 1700 2450 1700
Wire Wire Line
	1200 1600 2450 1600
Wire Wire Line
	1350 1500 2450 1500
Wire Wire Line
	1500 1400 2450 1400
Wire Wire Line
	750  1900 750  1200
Wire Wire Line
	900  1200 900  1800
Wire Wire Line
	1050 1700 1050 1200
Wire Wire Line
	1200 1200 1200 1600
Wire Wire Line
	1350 1500 1350 1200
Wire Wire Line
	1500 1200 1500 1400
Wire Wire Line
	1650 1300 1650 1200
Wire Wire Line
	1800 800  1800 900 
Wire Wire Line
	1650 800  1650 900 
Connection ~ 1650 800 
Wire Wire Line
	1500 800  1500 900 
Connection ~ 1500 800 
Wire Wire Line
	1350 800  1350 900 
Connection ~ 1350 800 
Wire Wire Line
	1200 800  1200 900 
Connection ~ 1200 800 
Wire Wire Line
	1050 800  1050 900 
Connection ~ 1050 800 
Wire Wire Line
	900  900  900  800 
Connection ~ 900  800 
Wire Wire Line
	1650 1300 2450 1300
Wire Wire Line
	1800 1200 2450 1200
Wire Wire Line
	2350 4550 2450 4550
Wire Wire Line
	2350 1100 2350 5150
Wire Wire Line
	2350 3700 2450 3700
Wire Wire Line
	2350 2300 2450 2300
Connection ~ 2350 3700
Connection ~ 2350 4550
Wire Wire Line
	2450 4250 2250 4250
Wire Wire Line
	2250 4250 2250 800 
Wire Wire Line
	3850 1200 3950 1200
Wire Wire Line
	3950 1200 3950 2400
Wire Wire Line
	3950 2400 2450 2400
Wire Wire Line
	2450 2400 2450 2500
Wire Wire Line
	750  800  1800 800 
Wire Wire Line
	750  2300 750  2200
Wire Wire Line
	750  900  750  800 
Wire Wire Line
	1900 2050 2450 2050
Wire Wire Line
	1900 2200 2450 2200
Wire Wire Line
	1900 3450 2450 3450
Wire Wire Line
	1900 3600 2450 3600
Wire Wire Line
	1900 4150 2450 4150
Wire Wire Line
	2450 3950 1900 3950
Wire Wire Line
	2450 4450 1900 4450
Wire Wire Line
	3850 2600 4150 2600
Wire Wire Line
	2450 1100 2350 1100
Connection ~ 2350 2300
Wire Wire Line
	900  4000 1250 4000
Wire Wire Line
	1250 4100 1050 4100
Wire Wire Line
	1050 4100 1050 4350
Wire Wire Line
	1250 3900 1050 3900
Wire Wire Line
	1050 3900 1050 3750
Wire Wire Line
	8350 2050 8850 2050
Wire Wire Line
	8850 1950 8800 1950
Wire Wire Line
	8800 1850 8800 3150
Wire Wire Line
	8850 1850 8800 1850
Connection ~ 8800 1950
Wire Wire Line
	9600 1450 9600 3150
Wire Wire Line
	9550 1550 9900 1550
Wire Wire Line
	9550 1650 9900 1650
Wire Wire Line
	9550 1750 9900 1750
Wire Wire Line
	9550 2450 9900 2450
Wire Wire Line
	8650 1650 8850 1650
Wire Wire Line
	9550 1250 10400 1250
Wire Wire Line
	9550 1150 10400 1150
Wire Wire Line
	8850 2250 8000 2250
Wire Wire Line
	8000 2750 8850 2750
Wire Wire Line
	8850 2650 8000 2650
Wire Wire Line
	8000 2550 8850 2550
Wire Wire Line
	8850 2450 8000 2450
Wire Wire Line
	8000 2350 8850 2350
Wire Wire Line
	8000 2150 8800 2150
Connection ~ 8800 2150
Wire Wire Line
	9550 1350 9900 1350
Wire Wire Line
	9550 2350 9900 2350
Wire Wire Line
	9600 1450 9550 1450
Wire Wire Line
	9550 2650 9900 2650
Wire Wire Line
	9550 2750 9900 2750
Wire Wire Line
	9900 4650 9550 4650
Wire Wire Line
	8350 1650 8350 2050
Wire Wire Line
	8250 1750 8250 2150
Connection ~ 8250 2150
Wire Wire Line
	10200 4650 10300 4650
Wire Wire Line
	10700 4650 10600 4650
Wire Wire Line
	8750 5250 9000 5250
Wire Wire Line
	9000 5250 9000 5000
Wire Wire Line
	8650 1750 8850 1750
Wire Wire Line
	8950 5150 8750 5150
Wire Wire Line
	8950 5350 8750 5350
Wire Wire Line
	10150 5200 9800 5200
Wire Wire Line
	10550 5200 10700 5200
Wire Wire Line
	10700 3950 10700 4650
Wire Wire Line
	8000 1750 8250 1750
Wire Wire Line
	8350 1650 8000 1650
Wire Wire Line
	10200 4150 10300 4150
Wire Wire Line
	10700 4150 10600 4150
Wire Wire Line
	9600 4300 9600 4150
Wire Wire Line
	9600 4150 9900 4150
Wire Wire Line
	2450 7300 2450 6900
Wire Wire Line
	2550 6900 2550 7300
Wire Wire Line
	2650 7300 2650 6900
Wire Wire Line
	2750 6900 2750 7300
Wire Wire Line
	2850 7300 2850 6900
Wire Wire Line
	2950 6900 2950 7300
Wire Wire Line
	3050 7300 3050 6900
Wire Wire Line
	3150 6900 3150 7300
Wire Wire Line
	3250 7300 3250 6900
Wire Wire Line
	3350 6900 3350 7300
Wire Wire Line
	3450 7300 3450 6900
Wire Wire Line
	3550 6900 3550 7300
Wire Wire Line
	3650 7300 3650 6900
Wire Wire Line
	3750 6900 3750 7300
Wire Wire Line
	3850 7300 3850 6900
Wire Wire Line
	3950 6900 3950 7300
Wire Wire Line
	3150 6000 3150 6400
Wire Wire Line
	3550 6000 3550 6400
Wire Wire Line
	3450 6400 3450 6000
Wire Wire Line
	3350 6000 3350 6400
Wire Wire Line
	3250 6400 3250 6000
Wire Wire Line
	5500 4650 5750 4650
Wire Wire Line
	5750 4550 5500 4550
Wire Wire Line
	5500 4450 5750 4450
Wire Wire Line
	3850 6000 3850 6400
Wire Wire Line
	3750 6400 3750 6000
Wire Wire Line
	3650 6000 3650 6400
Wire Wire Line
	1150 6900 1150 7000
Wire Wire Line
	1150 7000 1900 7000
Wire Wire Line
	1400 7000 1400 6900
Wire Wire Line
	1650 7000 1650 6900
Connection ~ 1400 7000
Connection ~ 1650 7000
Wire Wire Line
	1900 6900 1900 7100
Wire Wire Line
	1900 6500 1900 6600
Wire Wire Line
	1150 6500 1900 6500
Wire Wire Line
	1650 6600 1650 6500
Wire Wire Line
	1400 6600 1400 6500
Connection ~ 1650 6500
Connection ~ 1400 6500
Wire Wire Line
	1150 6400 1150 6600
Connection ~ 1900 7000
Connection ~ 1150 6500
Connection ~ 10700 4150
Wire Wire Line
	9550 2550 9900 2550
Text Label 9900 2550 2    60   ~ 0
GPIO7
Text Label 9900 2350 2    60   ~ 0
GPIO8
Wire Wire Line
	6800 1850 7150 1850
Text Label 7150 1850 2    60   ~ 0
GPIO7
Wire Wire Line
	6800 1950 7150 1950
Text Label 7150 1950 2    60   ~ 0
GPIO8
Text Label 8350 2750 2    60   ~ 0
GPIO6
Text Label 8350 2650 2    60   ~ 0
GPIO5
Text Label 8350 2550 2    60   ~ 0
GPIO4
Text Label 8350 2450 2    60   ~ 0
GPIO3
Text Label 8350 2350 2    60   ~ 0
GPIO2
Text Label 8350 2250 2    60   ~ 0
GPIO1
$Comp
L GND #PWR013
U 1 1 5AA51276
P 4050 7100
F 0 "#PWR013" H 4050 6850 50  0001 C CNN
F 1 "GND" H 4050 6950 50  0000 C CNN
F 2 "" H 4050 7100 50  0001 C CNN
F 3 "" H 4050 7100 50  0001 C CNN
	1    4050 7100
	1    0    0    -1  
$EndComp
Wire Wire Line
	4050 6900 4050 7100
$Comp
L VCC #PWR014
U 1 1 5AA5140C
P 4050 6200
F 0 "#PWR014" H 4050 6050 50  0001 C CNN
F 1 "VCC" H 4050 6350 50  0000 C CNN
F 2 "" H 4050 6200 50  0001 C CNN
F 3 "" H 4050 6200 50  0001 C CNN
	1    4050 6200
	1    0    0    -1  
$EndComp
Wire Wire Line
	4050 6200 4050 6400
Wire Wire Line
	9550 2250 9900 2250
Text Label 9900 2250 2    60   ~ 0
GPIO9
Wire Wire Line
	9550 2050 9900 2050
Text Label 9900 2050 2    60   ~ 0
GPIO10
Wire Wire Line
	9550 1950 9900 1950
Text Label 9900 1950 2    60   ~ 0
GPIO11
Wire Wire Line
	9550 1850 9900 1850
Text Label 9900 1850 2    60   ~ 0
GPIO12
Wire Wire Line
	6800 2150 7150 2150
Text Label 7150 2150 2    60   ~ 0
GPIO10
Wire Wire Line
	6800 2250 7150 2250
Text Label 7150 2250 2    60   ~ 0
GPIO11
Wire Wire Line
	6800 2350 7150 2350
Text Label 7150 2350 2    60   ~ 0
GPIO12
Wire Wire Line
	6800 2050 7150 2050
Text Label 7150 2050 2    60   ~ 0
GPIO9
$Comp
L Conn_01x04 J11
U 1 1 5AA5CBCC
P 10600 1150
F 0 "J11" H 10600 1350 50  0000 C CNN
F 1 "I2C" H 10600 850 50  0000 C CNN
F 2 "w_pin_strip:pin_strip_4" H 10600 1150 50  0001 C CNN
F 3 "" H 10600 1150 50  0001 C CNN
	1    10600 1150
	1    0    0    -1  
$EndComp
Wire Wire Line
	10300 1050 10400 1050
Wire Wire Line
	10300 650  10300 1050
$Comp
L VCC #PWR015
U 1 1 5AA5CDA3
P 10300 650
F 0 "#PWR015" H 10300 500 50  0001 C CNN
F 1 "VCC" H 10300 800 50  0000 C CNN
F 2 "" H 10300 650 50  0001 C CNN
F 3 "" H 10300 650 50  0001 C CNN
	1    10300 650 
	1    0    0    -1  
$EndComp
$Comp
L Conn_01x08 J4
U 1 1 5AA5E8B2
P 6600 2050
F 0 "J4" H 6600 2450 50  0000 C CNN
F 1 "GPIO_INT" H 6600 1550 50  0000 C CNN
F 2 "w_pin_strip:pin_strip_8" H 6600 2050 50  0001 C CNN
F 3 "" H 6600 2050 50  0001 C CNN
	1    6600 2050
	-1   0    0    1   
$EndComp
Wire Wire Line
	6800 1750 7250 1750
Wire Wire Line
	7250 1750 7250 2450
$Comp
L GND #PWR016
U 1 1 5AA5EACF
P 7250 2450
F 0 "#PWR016" H 7250 2200 50  0001 C CNN
F 1 "GND" H 7250 2300 50  0000 C CNN
F 2 "" H 7250 2450 50  0001 C CNN
F 3 "" H 7250 2450 50  0001 C CNN
	1    7250 2450
	1    0    0    -1  
$EndComp
Wire Wire Line
	6800 1650 6900 1650
Wire Wire Line
	6900 1650 6900 1550
$Comp
L VCC #PWR017
U 1 1 5AA5ECCF
P 6900 1550
F 0 "#PWR017" H 6900 1400 50  0001 C CNN
F 1 "VCC" H 6900 1700 50  0000 C CNN
F 2 "" H 6900 1550 50  0001 C CNN
F 3 "" H 6900 1550 50  0001 C CNN
	1    6900 1550
	1    0    0    -1  
$EndComp
Wire Wire Line
	10700 5200 10700 5400
$Comp
L VCC #PWR018
U 1 1 5AA6808E
P 8100 1950
F 0 "#PWR018" H 8100 1800 50  0001 C CNN
F 1 "VCC" H 8100 2100 50  0000 C CNN
F 2 "" H 8100 1950 50  0001 C CNN
F 3 "" H 8100 1950 50  0001 C CNN
	1    8100 1950
	1    0    0    -1  
$EndComp
Wire Wire Line
	8100 1950 8100 2050
Wire Wire Line
	8100 2050 8000 2050
$Comp
L 74LS541 U4
U 1 1 5AA6A56D
P 4800 4450
F 0 "U4" H 4800 5025 50  0000 C BNN
F 1 "74LS541" H 4800 3875 50  0000 C TNN
F 2 "Package_SO:SO-20_12.8x7.5mm_P1.27mm" H 4800 4450 50  0001 C CNN
F 3 "" H 4800 4450 50  0001 C CNN
	1    4800 4450
	1    0    0    -1  
$EndComp
Wire Wire Line
	3850 4650 4100 4650
Wire Wire Line
	3850 4550 4100 4550
Wire Wire Line
	4100 4450 3850 4450
Wire Wire Line
	3850 4350 4100 4350
Wire Wire Line
	4100 4250 3850 4250
Wire Wire Line
	3850 4150 4100 4150
Wire Wire Line
	4100 4050 3850 4050
Wire Wire Line
	3850 3950 4100 3950
Wire Wire Line
	4100 4850 4000 4850
Wire Wire Line
	4000 4850 4000 5050
Wire Wire Line
	4000 4950 4100 4950
$Comp
L GND #PWR019
U 1 1 5AA6B070
P 4000 5050
F 0 "#PWR019" H 4000 4800 50  0001 C CNN
F 1 "GND" H 4000 4900 50  0000 C CNN
F 2 "" H 4000 5050 50  0001 C CNN
F 3 "" H 4000 5050 50  0001 C CNN
	1    4000 5050
	1    0    0    -1  
$EndComp
Connection ~ 4000 4950
Wire Wire Line
	9900 2850 9550 2850
Wire Wire Line
	9550 2950 9900 2950
$Comp
L GND #PWR020
U 1 1 5AA6BDB8
P 10300 1450
F 0 "#PWR020" H 10300 1200 50  0001 C CNN
F 1 "GND" H 10300 1300 50  0000 C CNN
F 2 "" H 10300 1450 50  0001 C CNN
F 3 "" H 10300 1450 50  0001 C CNN
	1    10300 1450
	1    0    0    -1  
$EndComp
Wire Wire Line
	10300 1450 10300 1350
Wire Wire Line
	10300 1350 10400 1350
NoConn ~ 8850 1550
Text Label 8350 2850 2    60   ~ 0
TX
Text Label 8350 2950 2    60   ~ 0
RX
Wire Wire Line
	8350 2850 8000 2850
Wire Wire Line
	8000 2950 8350 2950
$Comp
L Conn_01x12 J9
U 1 1 5AA6CF6A
P 7800 2650
F 0 "J9" H 7800 3250 50  0000 C CNN
F 1 "GPIO_EXT" H 7800 1950 50  0000 C CNN
F 2 "w_pin_strip:pin_strip_6x2" H 7800 2650 50  0001 C CNN
F 3 "" H 7800 2650 50  0001 C CNN
	1    7800 2650
	-1   0    0    1   
$EndComp
Wire Wire Line
	8100 3250 8100 3050
Wire Wire Line
	8100 3050 8000 3050
Wire Wire Line
	8000 3150 8100 3150
Connection ~ 8100 3150
$Comp
L GND #PWR021
U 1 1 5AA6D22F
P 8100 3250
F 0 "#PWR021" H 8100 3000 50  0001 C CNN
F 1 "GND" H 8100 3100 50  0000 C CNN
F 2 "" H 8100 3250 50  0001 C CNN
F 3 "" H 8100 3250 50  0001 C CNN
	1    8100 3250
	1    0    0    -1  
$EndComp
$Comp
L R R19
U 1 1 5AA6DBC6
P 10000 1000
F 0 "R19" V 10080 1000 50  0000 C CNN
F 1 "R" V 10000 1000 50  0000 C CNN
F 2 "w_smd_resistors:r_0805" V 9930 1000 50  0001 C CNN
F 3 "" H 10000 1000 50  0001 C CNN
	1    10000 1000
	1    0    0    -1  
$EndComp
Connection ~ 10000 1150
$Comp
L R R20
U 1 1 5AA6DC53
P 10150 1100
F 0 "R20" V 10230 1100 50  0000 C CNN
F 1 "R" V 10150 1100 50  0000 C CNN
F 2 "w_smd_resistors:r_0805" V 10080 1100 50  0001 C CNN
F 3 "" H 10150 1100 50  0001 C CNN
	1    10150 1100
	1    0    0    -1  
$EndComp
Connection ~ 10150 1250
Wire Wire Line
	10150 950  10150 750 
Wire Wire Line
	10000 750  10300 750 
Wire Wire Line
	10000 750  10000 850 
Connection ~ 10150 750 
Connection ~ 10300 750 
$EndSCHEMATC
